﻿name,tokens,learn,cost,use,range,action,damage,effect,special
Aimed Shot,3,,8 Stamina,Ranged Weapon,Weapon,Standard Action,Weapon + Combat,"Roll To-Hit target’s Concentration; on success, this attack deals (Perception) additional damage.",
Arc Shot,3,,4 Stamina,Ranged Weapon,Projectile 12; Projectile 16 if the target is below your elevation,Standard Action,Weapon + Combat,"You may ignore allies, enemies, and any obstacles that do not reach higher than 6 squares above you, for determining line of sight for this attack.",
Armor-Piercing Shot,6,Aimed Shot,12 Stamina,Ranged Weapon,Weapon,Standard Action,Weapon + Combat + Perception,"Roll To-Hit target’s Concentration; on success, this attack deals (Perception) additional damage.","If this attack does any damage, it does a minimum of (Perception / 2) damage (before Reactions)."
Blade Grasp,9,,10 Stamina,Target of a Basic Attack or Technique; attacker is adjacent to you; two hands empty (or using Hands-Free Weapons with no items in them),Self,Reaction,,"You suffer no damage from the attack, but still suffer any other negative effects (ailments, forced movement, etc.)",
Body Check,6,,3 Stamina,A foe leaves a square you are adjacent to.,Special,Reaction,Combat,"You enter the square the foe left. Roll To-Hit target’s Vitality; on success, target is Pushed 1 square in a direction of your choice and Knocked Prone.",
Call to Arms,3,,5 Stamina,,Weapon,Standard Action,(Weapon’s Basic Attack damage),"One ally within (Command) squares may, as a Reaction, make a Basic Attack against a foe you struck with this attack.",
Combo,6,,10 Stamina,Melee Weapon,Melee,Standard Action,,"Make three separate Strike Basic Attacks with your weapon. These Strikes do not need to target the same enemy, but you cannot move between Strikes.",
Commander’s Call,3,,3 Stamina,,1 ally within (Command) squares,Minor Action,,The target may choose one: - Move half their Movement - End the Distracted condition - End the Off-Balance condition - Perform a Minor Action,
Darmani’s Defense,3,Goron,10 Stamina,"Hit by an attack that can Push, knock Prone, or set Off-Balance",,Reaction,,"You suffer no damage from the attack, and cannot be Pushed, knocked Prone, or set Off-Balance by the attack. You still suffer any other negative effects (such as status ailments).",
Dash Attack,6,,8 Stamina,Melee Weapon,See Effect,Standard Action,Weapon + Combat,"During this attack, you may use your remaining Movement as normal. You may move through foes, hitting them with a Strike Basic Attack as you do so. You may only attack a given target once during this attack.",
Doppelganger’s Movement,3,Demon,8 Stamina,Hit by a Melee Attack,Self,Reaction,,"You suffer no damage from the attack, nor any other effects (ailments, forced movement, etc.). You are now Distracted by the attacker until the end of your next turn.",
Fastball Special,3,,6 Stamina,A grappled creature smaller than you,Projectile 8,Standard Action,Combat,"Damage from this attack ignores Defense. You may deal equal damage to the thrown creature, also ignoring Defense. The thrown creature lands adjacent to the target.",
Fatal Blow,6,,10 Stamina,Target is in Peril,Melee,Standard Action,Weapon + (3 x Combat),,
Goron Goroll,3,Goron,8 Stamina (Bind),,,Minor Action,,"You roll into a tight, round ball. While in this stance, you resist all attacks by 4 Ranks, and your Movement is increased by 2, but you can only Walk (i.e., no Climbing, Jumping, Swimming, etc.). Further, you can’t use Actions (Standard, Minor, or Reaction) that do not have the Goron race as a Learn or Use Requirement. Unlike other Bound effects, you may only uncurl as a Minor action during your turn, ending this stance.",
Goron Ground Pound,3,Goron,8 Stamina,,Burst 1,Standard Action,Weapon + Combat,"Roll To-Hit target’s Vitality; on success, the target is knocked Prone.",
Great Spin,6,Spin Attack,12 Stamina,Melee Weapon,Burst 1,Standard Action,Weapon + (2 x Combat),,
Hamstring,3,,4 Stamina,Melee Weapon,Melee,Standard Action,Weapon + Combat,"Roll To-Hit target’s Vitality; on success, the target is Slowed and Distracted by you until the end of their next turn.",
Helm Splitter,6,Jump Attack,8 Stamina,,Melee,Standard Action,Weapon + Combat,"You leap over the target, and land on the other side of them, in a straight line. While overtop the target, after dealing this attack’s damage, you may make a Disarm attempt against the foe; if successful, you knock their Head armor off, depriving them of its benefits. (If the target does not wear armor at all, this instead reduces their Defense by 25%.)",
Hurricane Spin,9,Great Spin,20 Stamina,Melee Weapon,Burst 1,Standard Action,Weapon + (2 x Combat),"During the attack, you may move as if Slowed, moving the Burst with you. Any targets caught in the Burst before, during, and after you move are struck.",
Jump Attack,3,,6 Stamina,,Melee,Standard Action,Weapon + Combat + Athletics,"You jump towards your target in a straight line, landing next to them, even if you have already used all your Movement for the turn. You are Off-Balance until the start of your next turn. This attack cannot be performed if you are Halted or Slowed.",
Kinetic Shot,6,,6 Stamina,Ranged Weapon,Projectile 6,Standard Action,Weapon + Combat,"The target is pushed back 3 squares. If they would impact another creature, that second creature is also struck by this attack (minus the push), and the push ends.",
Koridai Countenance,3,,2 Stamina,,1 Target within 4 squares,Minor Action,,"Roll To-Hit target’s Concentration; on success, they are Distracted by you until the end of their next turn.",
Lizalfos Leap,3,,8 Stamina,A foe moves into a square adjacent to you ,,Reaction,,"You immediately move 3 squares away from them, in any direction. This does not consume your Movement.",
Lynel’s Roar,9,,16 Stamina,,Burst 2,Standard Action,Weapon + Combat,All targets are pushed to just outside the radius of the attack.,
Mipha’s Vault,6,Jump Attack,12 Stamina,,Melee,Standard Action,Weapon + Combat + Athletics,"Before performing the attack, you jump on top of your target, using your horizontal jump, even if you have already reached you maximum Movement for the turn. Roll To-Hit target’s Vitality; on success, target is Knocked Prone. You then land on a square of your choice adjacent to your target. This attack cannot be performed if you are Halted or Slowed.",
Orbit Throw,6,At least one other Technique that requires a Returning Weapon,8 Stamina,Returning Weapon,Weapon,Standard Action,Weapon + Combat,"This attack does not harm the target. However, it does create a Burst 1 around the target, striking all targets within that burst.",
Ordon Rush,6,,8 Stamina,Target must be one size larger than you or smaller,Melee,Standard Action,Athletics + Combat,"Roll To-Hit target’s Vitality; on success, you begin pushing them. You may continue to move, but it must be in a straight line. Your target is pushed in front of you for the duration of this further movement.",
Perfect Deflection,9,Shield Bash,10 Stamina,"Defensive Weapon; hit by a Burst, Cone, Line, or Projectile attack",Self,Reaction,,"Roll To-Hit attacker’s Concentration, using your Defensive Weapon. On success, you suffer no damage or ill effects from the attack, and you may repeat the attack against only its user (ignoring Range).",
Peril Beam,6,Sword Beam,2 Stamina,"Melee Weapon, in Peril",Projectile 8,Standard Action,Weapon + (2 x Combat),,
Phrenic Eye,6,Arc Shot,8 Stamina,Ranged Weapon,Projectile 20,Standard Action,Weapon + Combat,,
Pick-Up Sticks,3,,3 Stamina,Returning Weapon,"Weapon; must be against an unattended, unsecured item",Minor,,"You throw your weapon, and it grabs the item in question, bringing it to you. You may place the item in your inventory, or in your hand(s); otherwise, the item lands in your square, undamaged.",
Pinning Shot,3,,4 Stamina,Ranged or Thrown Weapon,Weapon,Standard Action,Weapon + Combat,"Roll To-Hit target’s Concentration; on success, the target is Halted until the end of their next turn.",
Push-Off Kick,3,,3 Stamina,"Your legs must be free, and you must be able to move.",Melee,Minor Action,,"You push the target away from you one square, and you push yourself away from the target one square. (This should leave two squares between the two of you.)",
Rebonak’s Retort,6,At least one other Technique that Distracts a foe,3 Stamina,An ally you can see is struck by a foe you can see.,Visual,Reaction,,"You may move half your Movement towards the foe. Roll To-Hit target’s Concentration; on success, they are Distracted by you until the end of their next turn.",
Riposte,6,,4 Stamina,Defensive Weapon,,Free Action,,"When you successfully Deflect an attack with your shield, you may activate this Technique to make a follow-up Basic Attack of your choice with your other Weapon. (This cannot be combined with Shield Bash.)",
Serpent’s Fangs,3,,6 Stamina,Wielding two onehanded Weapons (one in each hand),Weapon,Standard Action,,"Make two separate Basic Attacks of your choice against a single foe, each using a different hand’s weapon. If both attacks hit, your second hit deals additional damage equal to either your Combat or Willpower (whichever the second Basic Attack uses).",
Shield Bash,3,,3 Stamina,Defensive Weapon,,Free Action,,"When you successfully Deflect an attack with your shield, you may activate this Technique to make a follow-up Strike Basic Attack with the Shield you used. (This cannot be combined with Riposte.)",
Shield Clash,3,,"2, 4, or 10 Stamina",Defensive Weapon,"Melee, Burst 1, or Burst 2 (based on amount spent)",Standard Action,,"Roll To-Hit target’s Concentration; on success, they are Distracted by you until the end of their next turn.",
Skirmish Strike,3,,4 Stamina,1h Weapon,Weapon,Standard Action,Weapon + Combat,"Following the attack, you may move 1 square in any direction your movement capabilities allow. You may then push the target 1 square in a direction of your choice.",
Spin Attack,3,,8 Stamina,Melee Weapon,Burst 1,Standard Action,Weapon + Combat,,
Stunner,6,,8 Stamina,"A free hand, or a Hands-Free Weapon",Melee,Standard Action,Weapon + (2 x Combat),"Roll To-Hit target’s Vitality; on success, the target is Off-Balance until the beginning of their next turn.",
Sword Beam,3,,0 Stamina,"Melee Weapon, User at Full Health",Projectile 8,Standard Action,Weapon + Combat,,
Threatening Blow,3,,4 Stamina,,Melee,Standard Action,Weapon + Combat,"Roll To-Hit target’s Concentration. On success, you may select one other foe you can see. Both your original target and the additional target are Distracted by you until the end of your next turn.",
Trick Shot,3,,4 Stamina,Ranged or Thrown Weapon,Special,Standard Action,Weapon + Combat,"This attack can hit one target that you can trace an 8-square path to from your location. This path can pass through creatures’ spaces, around corners, and even through small holes, but not through solid objects. You may choose which facing of the target you strike (like side, rear, or front).",
Two against One,6,,6 Stamina,"Wielding two nonDefensive Weapons (one in each hand); struck by an attack you could Parry (typically Line, Melee, or Sweep attacks)",Weapon,Reaction,,"Reduce the damage received by 50%, after applying Defense. Using your other weapon, make a Basic Attack against the foe that triggered this Technique.",
Uppercut,3,,4 Stamina,"A free hand, or a Hands-Free Weapon",Melee,Standard Action,Weapon + Combat,"Roll To-Hit target’s Vitality; on success, push the target away from you one square and knock them Prone.",
Venom Strike,3,"Talking Animal, with the Armed benefit",4 Stamina,Your Natural Weapon,Melee,Standard Action,Weapon + Combat,"Roll To-Hit target’s Vitality; on success, the target is made Sick.",
Wheel About,6,,"4 Stamina for you, and 8 Stamina for your mount","You are mounted, and you or your mount are the target of an attack",,Reaction,,"You and your mount move 1 square in a direction of your choice. This does not consume your Movement. If this removes you and your mount from the range of the attack, the attack has no effect on you and your mount. If it does not, reduce the damage you and your mount received from the attack by 50%, after applying Defense.",
Wide Return,3,,6 Stamina,Returning Weapon,Weapon,Standard Action,Weapon + Combat,"Make a follow-up attack against another foe within (Weapon’s Range) range of your original target. This follow-up attack deals (Weapon + Combat) damage, hits automatically, costs no Stamina, and must use the same weapon used in the original attack. This follow-up attack cannot have the same target as the original attack.",
Windup Strike,3,,6 Stamina,Melee Weapon,Weapon,Standard Action,Weapon + Combat,"Roll To-Hit target’s Concentration; on success, this attack deals (Combat) additional damage.",
